<?xml version="1.0" encoding="UTF-8" standalone="no"?>
<svg xmlns:svg="http://www.w3.org/2000/svg" xmlns="http://www.w3.org/2000/svg" width="20" height="20" viewBox="0 0 20 20" version="1.1">
  <path fill="#FFD029" d="m 9.5244639,2.2627971 c 0.14968,-0.46065 0.8014301,-0.46065 0.9510301,0 l 1.6574,5.10082 c 0.0669,0.20601 0.2589,0.34549 0.4755,0.34549 l 5.3633,0 c 0.4844,0 0.6858,0.61981 0.2939,0.90451 l -4.339,3.1525199 c -0.1752,0.1273 -0.2486,0.353 -0.1816,0.559 l 1.6573,5.1008 c 0.1497,0.4606 -0.3775,0.8437 -0.7694,0.559 l -4.339,-3.1525 c -0.1753,-0.1273 -0.4125501,-0.1273 -0.5877901,0 l -4.33901,3.1525 c -0.39186,0.2847 -0.9191,-0.0984 -0.76942,-0.559 l 1.65735,-5.1008 c 0.06694,-0.206 -0.00639,-0.4317 -0.18164,-0.559 l -4.33901,-3.1525199 c -0.39185,-0.2847 -0.19046,-0.90451 0.2939,-0.90451 l 5.36331,0 c 0.21661,0 0.40859,-0.13948 0.47553,-0.34549 l 1.65735,-5.10082 z" />
</svg>